{
  "page": 1,
  "total_results": 10000,
  "total_pages": 500,
  "results": [
    {
      "popularity": 617.703,
      "vote_count": 600,
      "video": false,
      "poster_path": "/8WUVHemHFH2ZIP6NWkwlHWsyrEL.jpg",
      "id": 338762,
      "adult": false,
      "backdrop_path": "/lP5eKh8WOcPysfELrUpGhHJGZEH.jpg",
      "original_language": "en",
      "original_title": "Bloodshot",
      "genre_ids": [
        28,
        878
      ],
      "title": "Bloodshot",
      "vote_average": 7.3,
      "overview": "After he and his wife are murdered, marine Ray Garrison is resurrected by a team of scientists. Enhanced with nanotechnology, he becomes a superhuman, biotech killing machine—'Bloodshot'. As Ray first trains with fellow super-soldiers, he cannot recall anything from his former life. But when his memories flood back and he remembers the man that killed both him and his wife, he breaks out of the facility to get revenge, only to discover that there's more to the conspiracy than he thought.",
      "release_date": "2020-02-20"
    },
    {
      "popularity": 580.542,
      "vote_count": 2685,
      "video": false,
      "poster_path": "/xBHvZcjRiWyobQ9kxBhO6B2dtRI.jpg",
      "id": 419704,
      "adult": false,
      "backdrop_path": "/5BwqwxMEjeFtdknRV792Svo0K1v.jpg",
      "original_language": "en",
      "original_title": "Ad Astra",
      "genre_ids": [
        12,
        18,
        9648,
        878,
        53
      ],
      "title": "Ad Astra",
      "vote_average": 5.9,
      "overview": "The near future, a time when both hope and hardships drive humanity to look to the stars and beyond. While a mysterious phenomenon menaces to destroy life on planet Earth, astronaut Roy McBride undertakes a mission across the immensity of space and its many perils to uncover the truth about a lost expedition that decades before boldly faced emptiness and silence in search of the unknown.",
      "release_date": "2019-09-17"
    },
    {
      "popularity": 313.37,
      "vote_count": 1945,
      "video": false,
      "poster_path": "/h4VB6m0RwcicVEZvzftYZyKXs6K.jpg",
      "id": 495764,
      "adult": false,
      "backdrop_path": "/pbOOOT0ASXjP4aJZr5NyOjK9qix.jpg",
      "original_language": "en",
      "original_title": "Birds of Prey (and the Fantabulous Emancipation of One Harley Quinn)",
      "genre_ids": [
        28,
        35,
        80
      ],
      "title": "Birds of Prey (and the Fantabulous Emancipation of One Harley Quinn)",
      "vote_average": 7.1,
      "overview": "After her breakup with the Joker, Harley Quinn joins forces with singer Black Canary, assassin Huntress, and police detective Renee Montoya to help a young girl named Cassandra, who had a hit placed on her after she stole a rare diamond from crime lord Roman Sionis.",
      "release_date": "2020-02-05"
    },
    {
      "popularity": 220.321,
      "vote_count": 2,
      "video": false,
      "poster_path": "/g0c40ySJ1zW8dVwuCETgJcl3q7c.jpg",
      "id": 625985,
      "adult": false,
      "backdrop_path": "/j4B8G5yKRnTO655uvpQBXt4Ok08.jpg",
      "original_language": "ja",
      "original_title": "仮面ライダージオウNEXT TIME：ゲイツ、マジェスティ",
      "genre_ids": [
        28,
        12,
        878
      ],
      "title": "Kamen Rider Zi-O NEXT TIME: Geiz, Majesty",
      "vote_average": 7,
      "overview": "Geiz, Majesty is the first installment of the Kamen Rider Zi-O NEXT TIME series of V-Cinema films for Kamen Rider Zi-O. It focuses on the character Geiz Myokoin.",
      "release_date": "2020-02-28"
    },
    {
      "popularity": 253.388,
      "vote_count": 755,
      "video": false,
      "poster_path": "/4U7hpTK0XTQBKT5X60bKmJd05ha.jpg",
      "id": 570670,
      "adult": false,
      "backdrop_path": "/uZMZyvarQuXLRqf3xdpdMqzdtjb.jpg",
      "original_language": "en",
      "original_title": "The Invisible Man",
      "genre_ids": [
        27,
        878,
        53
      ],
      "title": "The Invisible Man",
      "vote_average": 7.1,
      "overview": "When Cecilia's abusive ex takes his own life and leaves her his fortune, she suspects his death was a hoax. As a series of coincidences turn lethal, Cecilia works to prove that she is being hunted by someone nobody can see.",
      "release_date": "2020-02-26"
    },
    {
      "popularity": 221.77,
      "vote_count": 406,
      "video": false,
      "poster_path": "/3VqDLgKLfNYSQYEGC5sjGhcPhn7.jpg",
      "id": 508439,
      "adult": false,
      "backdrop_path": "/xFxk4vnirOtUxpOEWgA1MCRfy6J.jpg",
      "original_language": "en",
      "original_title": "Onward",
      "genre_ids": [
        12,
        16,
        35,
        14,
        10751
      ],
      "title": "Onward",
      "vote_average": 7.9,
      "overview": "In a suburban fantasy world, two teenage elf brothers embark on an extraordinary quest to discover if there is still a little magic left out there.",
      "release_date": "2020-02-29"
    },
    {
      "popularity": 213.3,
      "vote_count": 3529,
      "video": false,
      "poster_path": "/db32LaOibwEliAmSL2jjDF6oDdj.jpg",
      "id": 181812,
      "adult": false,
      "backdrop_path": "/jOzrELAzFxtMx2I4uDGHOotdfsS.jpg",
      "original_language": "en",
      "original_title": "Star Wars: The Rise of Skywalker",
      "genre_ids": [
        28,
        12,
        878
      ],
      "title": "Star Wars: The Rise of Skywalker",
      "vote_average": 6.5,
      "overview": "The surviving Resistance faces the First Order once again as the journey of Rey, Finn and Poe Dameron continues. With the power and knowledge of generations behind them, the final battle begins.",
      "release_date": "2019-12-18"
    },
    {
      "popularity": 199.758,
      "id": 512200,
      "video": false,
      "vote_count": 2619,
      "vote_average": 6.8,
      "title": "Jumanji: The Next Level",
      "release_date": "2019-12-04",
      "original_language": "en",
      "original_title": "Jumanji: The Next Level",
      "genre_ids": [
        28,
        12,
        35,
        14
      ],
      "backdrop_path": "/hreiLoPysWG79TsyQgMzFKaOTF5.jpg",
      "adult": false,
      "overview": "As the gang return to Jumanji to rescue one of their own, they discover that nothing is as they expect. The players will have to brave parts unknown and unexplored in order to escape the world’s most dangerous game.",
      "poster_path": "/bB42KDdfWkOvmzmYkmK58ZlCa9P.jpg"
    },
    {
      "popularity": 245.582,
      "vote_count": 4,
      "video": false,
      "poster_path": "/j9vEMgw1Y7nG6gO1Zf516eAbVe5.jpg",
      "id": 587853,
      "adult": false,
      "backdrop_path": "/oKRxXFIND4GMNsjsTYdxKW67Mrk.jpg",
      "original_language": "id",
      "original_title": "Upin & Ipin: Keris Siamang Tunggal",
      "genre_ids": [],
      "title": "Upin & Ipin: Keris Siamang Tunggal",
      "vote_average": 7.1,
      "overview": "This new adventure film tells of the adorable twin brothers Upin and Ipin together with their friends Ehsan, Fizi, Mail, Jarjit, Mei Mei, and Susanti, and their quest to save a fantastical kingdom of Inderaloka from the evil Raja Bersiong. It all begins when Upin, Ipin, and their friends stumble upon a mystical kris that leads them straight into the kingdom. While trying to find their way back home, they are suddenly burdened with the task of restoring the kingdom back to its former glory. With help from Mat Jenin and Belalang, Upin, Ipin and their friends must overcome a series of challenging obstacles in this action-packed, magical and humorous adventure film produced by Les’ Copaque Production Sdn. Bhd",
      "release_date": "2019-05-09"
    },
    {
      "popularity": 144.171,
      "vote_count": 1555,
      "video": false,
      "poster_path": "/aQvJ5WPzZgYVDrxLX4R6cLJCEaQ.jpg",
      "id": 454626,
      "adult": false,
      "backdrop_path": "/stmYfCUGd8Iy6kAMBr6AmWqx8Bq.jpg",
      "original_language": "en",
      "original_title": "Sonic the Hedgehog",
      "genre_ids": [
        28,
        35,
        878,
        10751
      ],
      "title": "Sonic the Hedgehog",
      "vote_average": 7.3,
      "overview": "Based on the global blockbuster videogame franchise from Sega, Sonic the Hedgehog tells the story of the world’s speediest hedgehog as he embraces his new home on Earth. In this live-action adventure comedy, Sonic and his new best friend team up to defend the planet from the evil genius Dr. Robotnik and his plans for world domination.",
      "release_date": "2020-02-12"
    },
    {
      "popularity": 147.784,
      "vote_count": 2923,
      "video": false,
      "poster_path": "/kbC6I0AOSLTHFA2dieyat9h8QHP.jpg",
      "id": 39538,
      "adult": false,
      "backdrop_path": "/57kqAPdVJTAJ4rnDTSVDx0f1JBu.jpg",
      "original_language": "en",
      "original_title": "Contagion",
      "genre_ids": [
        18,
        878,
        53
      ],
      "title": "Contagion",
      "vote_average": 6.4,
      "overview": "As an epidemic of a lethal airborne virus - that kills within days - rapidly grows, the worldwide medical community races to find a cure and control the panic that spreads faster than the virus itself.",
      "release_date": "2011-09-08"
    },
    {
      "popularity": 224.127,
      "vote_count": 7858,
      "video": false,
      "poster_path": "/eivQmS3wqzqnQWILHLc4FsEfcXP.jpg",
      "id": 363088,
      "adult": false,
      "backdrop_path": "/6P3c80EOm7BodndGBUAJHHsHKrp.jpg",
      "original_language": "en",
      "original_title": "Ant-Man and the Wasp",
      "genre_ids": [
        28,
        12,
        35,
        878
      ],
      "title": "Ant-Man and the Wasp",
      "vote_average": 7,
      "overview": "Just when his time under house arrest is about to end, Scott Lang once again puts his freedom at risk to help Hope van Dyne and Dr. Hank Pym dive into the quantum realm and try to accomplish, against time and any chance of success, a very dangerous rescue mission.",
      "release_date": "2018-07-04"
    },
    {
      "popularity": 163.19,
      "vote_count": 3265,
      "video": false,
      "poster_path": "/zHQFqG0e5p9Fwhv5v6XIP9fLtYk.jpg",
      "id": 330457,
      "adult": false,
      "backdrop_path": "/xJWPZIYOEFIjZpBL7SVBGnzRYXp.jpg",
      "original_language": "en",
      "original_title": "Frozen II",
      "genre_ids": [
        12,
        16,
        10751
      ],
      "title": "Frozen II",
      "vote_average": 7.1,
      "overview": "Elsa, Anna, Kristoff and Olaf head far into the forest to learn the truth about an ancient mystery of their kingdom.",
      "release_date": "2019-11-20"
    },
    {
      "popularity": 192.311,
      "vote_count": 4729,
      "video": false,
      "poster_path": "/AkJQpZp9WoNdj7pLYSj1L0RcMMN.jpg",
      "id": 353081,
      "adult": false,
      "backdrop_path": "/aw4FOsWr2FY373nKSxbpNi3fz4F.jpg",
      "original_language": "en",
      "original_title": "Mission: Impossible - Fallout",
      "genre_ids": [
        28,
        12
      ],
      "title": "Mission: Impossible - Fallout",
      "vote_average": 7.3,
      "overview": "When an IMF mission ends badly, the world is faced with dire consequences. As Ethan Hunt takes it upon himself to fulfill his original briefing, the CIA begin to question his loyalty and his motives. The IMF team find themselves in a race against time, hunted by assassins while trying to prevent a global catastrophe.",
      "release_date": "2018-07-13"
    },
    {
      "popularity": 153.128,
      "vote_count": 3008,
      "video": false,
      "poster_path": "/pThyQovXQrw2m0s9x82twj48Jq4.jpg",
      "id": 546554,
      "adult": false,
      "backdrop_path": "/cjTQSwcsfVdirSFSHNBXRGkxmWa.jpg",
      "original_language": "en",
      "original_title": "Knives Out",
      "genre_ids": [
        35,
        9648
      ],
      "title": "Knives Out",
      "vote_average": 7.8,
      "overview": "When renowned crime novelist Harlan Thrombey is found dead at his estate just after his 85th birthday, the inquisitive and debonair Detective Benoit Blanc is mysteriously enlisted to investigate. From Harlan's dysfunctional family to his devoted staff, Blanc sifts through a web of red herrings and self-serving lies to uncover the truth behind Harlan's untimely death.",
      "release_date": "2019-11-27"
    },
    {
      "popularity": 134.686,
      "vote_count": 10393,
      "video": false,
      "poster_path": "/udDclJoHjfjb8Ekgsd4FDteOkCU.jpg",
      "id": 475557,
      "adult": false,
      "backdrop_path": "/n6bUvigpRFqSwmPp1m2YADdbRBc.jpg",
      "original_language": "en",
      "original_title": "Joker",
      "genre_ids": [
        80,
        18,
        53
      ],
      "title": "Joker",
      "vote_average": 8.2,
      "overview": "During the 1980s, a failed stand-up comedian is driven insane and turns to a life of crime and chaos in Gotham City while becoming an infamous psychopathic crime figure.",
      "release_date": "2019-10-02"
    },
    {
      "popularity": 114.119,
      "vote_count": 134,
      "video": false,
      "poster_path": "/rmflsMjk4lxx2foNUtd1OKWv6vB.jpg",
      "id": 514847,
      "adult": false,
      "backdrop_path": "/naXUDz0VGK7aaPlEpsuYW8kNVsr.jpg",
      "original_language": "en",
      "original_title": "The Hunt",
      "genre_ids": [
        28,
        27,
        53
      ],
      "title": "The Hunt",
      "vote_average": 6.2,
      "overview": "Twelve strangers wake up in a clearing. They don't know where they are -- or how they got there. In the shadow of a dark internet conspiracy theory, ruthless elitists gather at a remote location to hunt humans for sport. But their master plan is about to be derailed when one of the hunted, Crystal, turns the tables on her pursuers.",
      "release_date": "2020-03-11"
    },
    {
      "popularity": 137.949,
      "vote_count": 16,
      "video": false,
      "poster_path": "/iaTW57RK87v7ZrGkLKVofNH9YOr.jpg",
      "id": 505951,
      "adult": false,
      "backdrop_path": "/cIXnYsJF0pxuRJabHpTTl1jckcw.jpg",
      "original_language": "ta",
      "original_title": "கண்ணும் கண்ணும் கொள்ளையடித்தால்",
      "genre_ids": [
        35,
        18,
        10749
      ],
      "title": "Kannum Kannum Kollaiyadithaal",
      "vote_average": 6.1,
      "overview": "Siddarth falls head-over-heels in love with Meera but things take a risky turn when they get into a messy situation with a dangerous man.",
      "release_date": "2020-02-28"
    },
    {
      "popularity": 119.407,
      "vote_count": 3655,
      "video": false,
      "poster_path": "/AuGiPiGMYMkSosOJ3BQjDEAiwtO.jpg",
      "id": 530915,
      "adult": false,
      "backdrop_path": "/cqa3sa4c4jevgnEJwq3CMF8UfTG.jpg",
      "original_language": "en",
      "original_title": "1917",
      "genre_ids": [
        28,
        18,
        53,
        10752
      ],
      "title": "1917",
      "vote_average": 8,
      "overview": "At the height of the First World War, two young British soldiers must cross enemy territory and deliver a message that will stop a deadly attack on hundreds of soldiers.",
      "release_date": "2019-12-25"
    },
    {
      "popularity": 118.983,
      "id": 614375,
      "video": false,
      "vote_count": 6,
      "vote_average": 7.9,
      "title": "F#*@BOIS",
      "release_date": "2019-08-02",
      "original_language": "tl",
      "original_title": "F#*@BOIS",
      "genre_ids": [
        18
      ],
      "backdrop_path": null,
      "adult": false,
      "overview": "Ace, 23, and Miko, 17, desperately want to become famous actors but it seems the Universe has a different plan for their lives.",
      "poster_path": "/hjOX3eTRR37WdsTMXOcD0gF9BA7.jpg"
    }
  ]
}